…
MLB.11.18.inningSummary <- individualInning %>% 
    gather(I_3, I_4, I_5, I_6, I_7, I_8, I_9, I_10, I_11, I_12, I_13, I_14, I_15, I_16, I_17, key = "battersPerInning", value = "count") %>%  # gather 실시 
    group_by(pitcher_name, battersPerInning) %>% 
    summarise(sum = sum(count)) %>% 
    spread(key = battersPerInning, value = sum) # spread 실시 

individualInning %>%
    ungroup() %>% 
    select(-c(game_date, inningResults)) %>% 
    group_by(pitcher_name) %>% 
    summarise_all(.funs = sum)
```

```
## # A tibble: 60 x 16
##    pitcher_name   I_3   I_4   I_5   I_6   I_7   I_8   I_9  I_10  I_11  I_12
##    <chr>        <dbl> <dbl> <dbl> <dbl> <dbl> <dbl> <dbl> <dbl> <dbl> <dbl>
##  1 니퍼트          14    14     2     6     3     1     0     0     0     1
##  2 다이아몬드     119    65    60    33    25    22     6     6     1     0
##  3 듀브론트       175   150    79    63    29    26    14     9     1     1
##  4 레나도          32    25    15     9    10     3     1     0     1     0
##  5 레온            18     6     6     4     3     1     0     0     0     0
##  6 레이예스        39    43    24    17    10     9     5     0     0     0
##  7 레일리          12    12     6     6     1     3     2     0     0     0
##  8 로저스         198    98    80    53    24    14    11     5     2     1
##  9 루카스         136    82    74    42    35    18    11     7     5     1
## 10 린드블럼       106    41    35    15     9     2     1     0     0     0
## # ... with 50 more rows, and 5 more variables: I_13 <dbl>, I_14 <dbl>,
## #   I_15 <dbl>, I_16 <dbl>, I_17 <dbl>
```
…
